CountryCode,CountryName,GDP_PC,life_expectancy,births_per_woman,population_size,is_oecd,IncomeGroup,region
AFG,Afghanistan,584.025902055779,63.2981951219512,4.802,33736494,False,Low income,South Asia
ALB,Albania,3954.02278326009,78.2031463414634,1.714,2880703,False,Upper middle income,Europe & Central Asia
DZA,Algeria,4132.76029208862,75.8552926829268,2.839,39871528,False,Upper middle income,Middle East & North Africa
AGO,Angola,3695.79374814656,61.1893414634146,5.766,27859305,False,Upper middle income,Sub-Saharan Africa
ATG,Antigua and Barbuda,13566.9054060515,76.0756341463415,2.063,99923,False,High income,Latin America & Caribbean
ARG,Argentina,13467.1023570022,76.2930243902439,2.308,43417765,False,Upper middle income,Latin America & Caribbean
ARM,Armenia,3609.65477582664,74.2061951219512,1.622,2916950,False,Lower middle income,Europe & Central Asia
AUS,Australia,56554.0387612447,82.4512195121951,1.833,23789338,True,High income,East Asia & Pacific
AUT,Austria,43665.0094707965,81.8439024390244,1.47,8633169,True,High income,Europe & Central Asia
AZE,Azerbaijan,5500.31038244408,,1.97,9649341,False,Upper middle income,Europe & Central Asia
BHS,"Bahamas, The",22888.1340509464,75.3687804878049,1.778,386838,False,High income,Latin America & Caribbean
BHR,Bahrain,22688.8782442968,76.8651951219512,2.056,1371855,False,High income,Middle East & North Africa
BGD,Bangladesh,1210.15812046669,72.2216097560976,2.133,161200886,False,Lower middle income,South Asia
BRB,Barbados,15557.8308123722,75.6379024390244,1.796,284217,False,High income,Latin America & Caribbean
BLR,Belarus,5949.11067749823,73.6243902439025,1.724,9489616,False,Upper middle income,Europe & Central Asia
BEL,Belgium,40356.875002697,81.2878048780488,1.74,11274196,True,High income,Europe & Central Asia
BLZ,Belize,4849.99749504576,70.3109756097561,2.544,359288,False,Upper middle income,Latin America & Caribbean
BEN,Benin,783.947090952422,60.5846829268293,5.048,10575952,False,Low income,Sub-Saharan Africa
BTN,Bhutan,2613.64517681649,69.8071219512195,2.086,787386,False,Lower middle income,South Asia
BOL,Bolivia,3077.02619917158,68.7498048780488,2.921,10724705,False,Lower middle income,Latin America & Caribbean
BIH,Bosnia and Herzegovina,4574.09078735133,76.6402926829268,1.345,3535961,False,Upper middle income,Europe & Central Asia
BWA,Botswana,6532.06050136763,65.7510975609756,2.774,2209197,False,Upper middle income,Sub-Saharan Africa
BRA,Brazil,8757.20620228724,75.1991219512195,1.74,205962108,False,Upper middle income,Latin America & Caribbean
BRN,Brunei Darussalam,30967.890506377,77.066756097561,1.884,417542,False,High income,East Asia & Pacific
BGR,Bulgaria,6993.47735975728,74.4658536585366,1.53,7177991,False,Upper middle income,Europe & Central Asia
BFA,Burkina Faso,615.592225011518,59.8446585365854,5.436,18110624,False,Low income,Sub-Saharan Africa
BDI,Burundi,303.681022254465,57.0693414634147,5.781,10199270,False,Low income,Sub-Saharan Africa
CPV,Cabo Verde,2954.11946734235,72.4351707317073,2.374,532913,False,Lower middle income,Sub-Saharan Africa
KHM,Cambodia,1163.18977018277,68.4720487804878,2.594,15517635,False,Lower middle income,East Asia & Pacific
CMR,Cameroon,1244.42942056964,57.557512195122,4.778,22834522,False,Lower middle income,Sub-Saharan Africa
CAN,Canada,43315.7004418128,82.1290243902439,1.6,35848610,True,High income,North America
CAF,Central African Republic,348.381417033715,,4.94,4546100,False,Low income,Sub-Saharan Africa
TCD,Chad,777.24870512323,52.5539512195122,6.05,14009413,False,Low income,Sub-Saharan Africa
CHL,Chile,13653.2263998732,79.1606829268293,1.785,17762681,True,High income,Latin America & Caribbean
CHN,China,8069.21193773116,76.1170975609756,1.617,1371220000,False,Upper middle income,East Asia & Pacific
COL,Colombia,6044.52555566556,74.1561951219512,1.874,48228697,False,Upper middle income,Latin America & Caribbean
COM,Comoros,727.646386827046,63.4606829268293,4.42,777424,False,Low income,Sub-Saharan Africa
COD,"Congo, Dem. Rep.",474.936048106405,59.1732195121951,6.202,76196619,False,Low income,Sub-Saharan Africa
COG,"Congo, Rep.",1712.12113140016,64.0907317073171,4.721,4995648,False,Lower middle income,Sub-Saharan Africa
CRI,Costa Rica,11406.3627271108,79.6089024390244,1.8,4807852,False,Upper middle income,Latin America & Caribbean
CIV,Cote d'Ivoire,1420.62688438877,53.078243902439,4.976,23108472,False,Lower middle income,Sub-Saharan Africa
HRV,Croatia,11579.6670403193,77.2756097560976,1.46,4203604,False,High income,Europe & Central Asia
CUB,Cuba,7602.26121831897,79.5437073170732,1.72,11461432,False,Upper middle income,Latin America & Caribbean
CYP,Cyprus,23075.1126993152,80.2910487804878,1.35,1160985,False,High income,Europe & Central Asia
CZE,Czech Republic,17556.9243042464,79.4731707317073,1.53,10546059,True,High income,Europe & Central Asia
DNK,Denmark,53014.6441616194,81.1,1.69,5683483,True,High income,Europe & Central Asia
DJI,Djibouti,1862.16727373104,62.2498292682927,2.913,927414,False,Lower middle income,Middle East & North Africa
DOM,Dominican Republic,6468.47164839225,73.7036829268293,2.451,10528394,False,Upper middle income,Latin America & Caribbean
ECU,Ecuador,,76.081512195122,2.514,16144368,False,Upper middle income,Latin America & Caribbean
EGY,"Egypt, Arab Rep.",3547.71301183827,,3.311,93778172,False,Lower middle income,Middle East & North Africa
SLV,El Salvador,4127.11774995493,73.0030975609756,2.101,6312478,False,Lower middle income,Latin America & Caribbean
GNQ,Equatorial Guinea,10347.3125725971,57.5083902439024,4.775,1175389,False,Upper middle income,Sub-Saharan Africa
EST,Estonia,17074.9209104204,77.1317073170732,1.54,1315407,True,High income,Europe & Central Asia
ETH,Ethiopia,645.463762722184,65.0082926829268,4.317,99873033,False,Low income,Sub-Saharan Africa
FJI,Fiji,4921.8962087863,70.2242682926829,2.541,892149,False,Upper middle income,East Asia & Pacific
FIN,Finland,42405.3974427998,81.3853658536585,1.71,5479531,True,High income,Europe & Central Asia
FRA,France,36526.7701083069,82.6707317073171,2.01,66624068,True,High income,Europe & Central Asia
GAB,Gabon,7388.98414439318,,3.85,1930175,False,Upper middle income,Sub-Saharan Africa
GMB,"Gambia, The",474.716558719749,60.9574390243902,5.488,1977590,False,Low income,Sub-Saharan Africa
GEO,Georgia,3764.64091159037,72.9661219512195,2.003,3717100,False,Upper middle income,Europe & Central Asia
DEU,Germany,41176.8815764652,81.090243902439,1.5,81686611,True,High income,Europe & Central Asia
GHA,Ghana,1361.1139050484,62.407243902439,4.042,27582821,False,Lower middle income,Sub-Saharan Africa
GRC,Greece,18007.7899088689,81.5878048780488,1.3,10820883,True,High income,Europe & Central Asia
GRD,Grenada,9212.19282433628,73.4995365853659,2.126,106823,False,Upper middle income,Latin America & Caribbean
GUM,Guam,35439.4704475361,79.3776341463415,2.367,161797,False,High income,East Asia & Pacific
GTM,Guatemala,3923.57334364713,73.0429756097561,3.029,16252429,False,Lower middle income,Latin America & Caribbean
GIN,Guinea,554.040876644051,59.3989512195122,4.934,12091533,False,Low income,Sub-Saharan Africa
GNB,Guinea-Bissau,596.87171887261,56.9503902439025,4.71,1770526,False,Low income,Sub-Saharan Africa
GUY,Guyana,4136.68991875588,66.5393658536586,2.534,768514,False,Upper middle income,Latin America & Caribbean
HTI,Haiti,814.546395216916,63.0107804878049,2.973,10711061,False,Low income,Latin America & Caribbean
HND,Honduras,2326.15850619017,73.3246097560976,2.507,8960829,False,Lower middle income,Latin America & Caribbean
HKG,"Hong Kong SAR, China",42351.0245957363,84.2780487804878,1.195,,False,High income,East Asia & Pacific
HUN,Hungary,12365.626025614,75.9609756097561,1.44,9843028,True,High income,Europe & Central Asia
ISL,Iceland,50734.4435967226,82.8609756097561,1.93,330815,True,High income,Europe & Central Asia
IND,India,1613.18870760739,68.3326097560976,2.352,1309053980,False,Lower middle income,South Asia
IDN,Indonesia,3336.10668610138,69.0386341463415,2.389,258162113,False,Lower middle income,East Asia & Pacific
IRN,"Iran, Islamic Rep.",4957.58127645679,75.7426341463415,1.686,79360487,False,Upper middle income,Middle East & North Africa
IRQ,Iraq,4974.0269301667,69.6346097560976,4.427,36115649,False,Upper middle income,Middle East & North Africa
IRL,Ireland,60664.1043991579,81.5024390243902,1.94,4676835,True,High income,Europe & Central Asia
ISR,Israel,35729.3725285817,82.0512195121951,3.09,8380100,True,High income,Middle East & North Africa
ITA,Italy,30049.1475451649,83.490243902439,1.37,60730582,True,High income,Europe & Central Asia
JAM,Jamaica,4965.98985689509,75.8066829268293,2.026,2871934,False,Upper middle income,Latin America & Caribbean
JPN,Japan,34474.1373599536,83.8436585365854,1.46,127141000,True,High income,East Asia & Pacific
JOR,Jordan,4096.09927499826,74.1910243902439,3.445,9159302,False,Upper middle income,Middle East & North Africa
KAZ,Kazakhstan,10509.9810699442,72.0,2.73,17544126,False,Upper middle income,Europe & Central Asia
KEN,Kenya,1349.97014383813,66.6456585365854,3.917,47236259,False,Lower middle income,Sub-Saharan Africa
KIR,Kiribati,1424.48361073121,66.0521951219512,3.693,112407,False,Lower middle income,East Asia & Pacific
KOR,"Korea, Rep.",27105.076226264,82.1558536585366,1.239,51014947,True,High income,East Asia & Pacific
KWT,Kuwait,28975.4010764335,74.7468292682927,1.986,3935794,False,High income,Middle East & North Africa
KGZ,Kyrgyz Republic,1121.08283510739,70.6512195121951,3.2,5956900,False,Lower middle income,Europe & Central Asia
LAO,Lao PDR,2159.42297763653,66.2840487804878,2.758,6663967,False,Lower middle income,East Asia & Pacific
LVA,Latvia,13666.5833641408,74.1243902439024,1.64,1977527,False,High income,Europe & Central Asia
LBN,Lebanon,8046.63285144014,79.498243902439,1.72,5851479,False,Upper middle income,Middle East & North Africa
LSO,Lesotho,1073.82809348165,53.5700975609756,3.143,2174645,False,Lower middle income,Sub-Saharan Africa
LBR,Liberia,452.038071650923,61.9802195121951,4.65,4499621,False,Low income,Sub-Saharan Africa
LTU,Lithuania,14252.4285255672,75.119512195122,1.63,2904910,False,High income,Europe & Central Asia
LUX,Luxembourg,101909.822325793,82.2292682926829,1.5,569604,True,High income,Europe & Central Asia
MAC,"Macao SAR, China",75573.4807143851,83.5949024390244,1.28,600942,False,High income,East Asia & Pacific
MKD,"Macedonia, FYR",4834.13672297387,75.5243170731707,1.524,2079308,False,Upper middle income,Europe & Central Asia
MDG,Madagascar,401.857595060727,65.5078292682927,4.241,24234088,False,Low income,Sub-Saharan Africa
MWI,Malawi,362.657544352305,62.5433658536585,4.646,17573607,False,Low income,Sub-Saharan Africa
MYS,Malaysia,9643.64468338462,75.2201951219512,2.056,30723155,False,Upper middle income,East Asia & Pacific
MDV,Maldives,8395.78519750383,77.1202682926829,2.132,409163,False,Upper middle income,South Asia
MLI,Mali,729.720533846474,57.4577073170732,6.145,17467905,False,Low income,Sub-Saharan Africa
MLT,Malta,23819.4635962242,81.9463414634146,1.42,431874,False,High income,Middle East & North Africa
MRT,Mauritania,1158.25646878004,63.0463658536585,4.736,4182341,False,Lower middle income,Sub-Saharan Africa
MUS,Mauritius,9252.11072429051,74.3531707317073,1.36,1262605,False,Upper middle income,Sub-Saharan Africa
MEX,Mexico,9143.12849376552,76.8813658536586,2.215,125890949,True,Upper middle income,Latin America & Caribbean
FSM,"Micronesia, Fed. Sts.",3016.0112225063,69.0466341463415,3.194,104433,False,Lower middle income,East Asia & Pacific
MDA,Moldova,1832.4990518988,71.3712195121951,1.248,3554108,False,Lower middle income,Europe & Central Asia
MNG,Mongolia,3944.18003872251,69.1158780487805,2.793,2976877,False,Lower middle income,East Asia & Pacific
MNE,Montenegro,6461.19255426627,76.8643170731707,1.677,622159,False,Upper middle income,Europe & Central Asia
MAR,Morocco,2847.28556871398,75.5201463414634,2.526,34803322,False,Lower middle income,Middle East & North Africa
MOZ,Mozambique,528.312559713655,57.6092682926829,5.305,28010691,False,Low income,Sub-Saharan Africa
MMR,Myanmar,1194.59013673449,66.3856341463415,2.23,52403669,False,Lower middle income,East Asia & Pacific
NAM,Namibia,4737.66990632261,63.6364390243902,3.473,2425561,False,Upper middle income,Sub-Saharan Africa
NPL,Nepal,743.765348857832,69.8698536585366,2.162,28656282,False,Low income,South Asia
NLD,Netherlands,44292.8847318584,81.7073170731707,1.71,16939923,True,High income,Europe & Central Asia
NZL,New Zealand,38201.8903655116,81.4568292682927,1.99,4595700,True,High income,East Asia & Pacific
NIC,Nicaragua,2095.96648814515,75.038,2.231,6082035,False,Lower middle income,Latin America & Caribbean
NER,Niger,358.997030070782,59.6818780487805,7.29,19896965,False,Low income,Sub-Saharan Africa
NGA,Nigeria,2655.15797701046,52.9779268292683,5.591,181181744,False,Lower middle income,Sub-Saharan Africa
NOR,Norway,74505.2465396901,82.1,1.75,5188607,True,High income,Europe & Central Asia
OMN,Oman,16627.3643320866,77.1218292682927,2.737,4199810,False,High income,Middle East & North Africa
PAK,Pakistan,1431.24486452697,66.3321707317073,3.55,189380513,False,Lower middle income,South Asia
PAN,Panama,13134.043669218,77.8174390243903,2.541,3969249,False,Upper middle income,Latin America & Caribbean
PRY,Paraguay,4109.36772421106,73.0429756097561,2.509,6639119,False,Upper middle income,Latin America & Caribbean
PER,Peru,6030.34325949661,74.7134146341463,2.429,31376671,False,Upper middle income,Latin America & Caribbean
PHL,Philippines,2878.33837046989,69.0098536585366,2.958,101716359,False,Lower middle income,East Asia & Pacific
POL,Poland,12565.987597528,78.2048780487805,1.32,37986412,True,High income,Europe & Central Asia
PRT,Portugal,19220.0068081473,81.5219512195122,1.23,10358076,True,High income,Europe & Central Asia
QAT,Qatar,66346.5226685873,78.4627073170732,1.929,2481539,False,High income,Middle East & North Africa
ROU,Romania,8958.78859287686,74.9609756097561,1.52,19815481,False,Upper middle income,Europe & Central Asia
RUS,Russian Federation,9329.29835134816,70.9085365853659,1.75,144096870,False,Upper middle income,Europe & Central Asia
RWA,Rwanda,710.348390658908,66.6208780487805,3.967,11629553,False,Low income,Sub-Saharan Africa
WSM,Samoa,4149.36344384036,74.8387073170732,4.029,193759,False,Lower middle income,East Asia & Pacific
STP,Sao Tome and Principe,1624.60396252995,66.4166585365854,4.518,195553,False,Lower middle income,Sub-Saharan Africa
SAU,Saudi Arabia,20732.8617218565,74.5744878048781,2.579,31557144,False,High income,Middle East & North Africa
SEN,Senegal,908.725614527345,66.6614390243903,4.84,14976994,False,Low income,Sub-Saharan Africa
SRB,Serbia,5237.25533423136,75.4878048780488,1.46,7095383,False,Upper middle income,Europe & Central Asia
SYC,Seychelles,15390.0406382807,73.2292682926829,2.3,93419,False,High income,Sub-Saharan Africa
SLE,Sierra Leone,587.503823327043,51.4128536585366,4.561,7237025,False,Low income,Sub-Saharan Africa
SGP,Singapore,53629.7374603324,82.5951219512195,1.24,5535002,False,High income,East Asia & Pacific
SVK,Slovak Republic,16089.7484602032,77.2121951219512,1.37,5423801,True,High income,Europe & Central Asia
SVN,Slovenia,20729.8638261683,81.0780487804878,1.58,2063531,True,High income,Europe & Central Asia
SLB,Solomon Islands,1922.04138818612,70.4766829268293,3.907,587482,False,Lower middle income,East Asia & Pacific
SOM,Somalia,426.009853661841,55.8728536585366,6.365,13908129,False,Low income,Sub-Saharan Africa
ZAF,South Africa,5769.77257965127,61.9340975609756,2.485,55011976,False,Upper middle income,Sub-Saharan Africa
SSD,South Sudan,758.720578206203,56.3025853658537,4.938,11882136,False,Low income,Sub-Saharan Africa
ESP,Spain,25683.8456530241,83.3804878048781,1.32,46447697,True,High income,Europe & Central Asia
LKA,Sri Lanka,3844.89122995401,74.9889512195122,2.063,20966000,False,Lower middle income,South Asia
LCA,St. Lucia,8076.11313219475,75.283512195122,1.471,177206,False,Upper middle income,Latin America & Caribbean
VCT,St. Vincent and the Grenadines,6739.60582481893,73.0649512195122,1.953,109455,False,Upper middle income,Latin America & Caribbean
SDN,Sudan,2513.88466117983,64.2294146341464,4.595,38647803,False,Lower middle income,Sub-Saharan Africa
SUR,Suriname,8818.98256581516,71.2861951219512,2.396,553208,False,Upper middle income,Latin America & Caribbean
SWZ,Swaziland,3136.92511032337,56.9123658536586,3.141,1319011,False,Lower middle income,Sub-Saharan Africa
SWE,Sweden,50585.2584706067,82.5512195121951,1.88,9799186,True,High income,Europe & Central Asia
CHE,Switzerland,80989.8402358305,83.1975609756098,1.54,8282396,True,High income,Europe & Central Asia
TJK,Tajikistan,918.677154325296,71.0071219512195,3.404,8548651,False,Lower middle income,Europe & Central Asia
TZA,Tanzania,872.294093320544,64.9033170731707,5.079,53879957,False,Low income,Sub-Saharan Africa
THA,Thailand,5814.86313441588,75.068,1.498,68657600,False,Upper middle income,East Asia & Pacific
TLS,Timor-Leste,1161.76093513417,68.5800243902439,5.618,1240977,False,Lower middle income,East Asia & Pacific
TGO,Togo,551.130834550516,59.9237073170732,4.517,7416802,False,Low income,Sub-Saharan Africa
TON,Tonga,4093.77538663356,72.8401707317073,3.678,106364,False,Lower middle income,East Asia & Pacific
TTO,Trinidad and Tobago,17321.8337317826,70.5888536585366,1.766,1360092,False,High income,Latin America & Caribbean
TUN,Tunisia,3828.09158901884,75.4970487804878,2.223,11273661,False,Lower middle income,Middle East & North Africa
TUR,Turkey,10979.5256914159,75.4070975609756,2.072,78271472,True,Upper middle income,Europe & Central Asia
TKM,Turkmenistan,6432.66876792426,67.6410487804878,2.931,5565284,False,Upper middle income,Europe & Central Asia
UGA,Uganda,693.896382856584,59.508756097561,5.682,40144870,False,Low income,Sub-Saharan Africa
UKR,Ukraine,2124.66266591114,71.189512195122,1.506,45154029,False,Lower middle income,Europe & Central Asia
ARE,United Arab Emirates,39101.7468901054,77.484243902439,1.765,9154302,False,High income,Middle East & North Africa
GBR,United Kingdom,43929.6908131028,81.6048780487805,1.81,65128861,True,High income,Europe & Central Asia
USA,United States,56207.0367472679,78.7414634146342,1.843,320896618,True,High income,North America
URY,Uruguay,15524.8424662711,77.1316341463415,2.007,3431552,False,High income,Latin America & Caribbean
UZB,Uzbekistan,2137.57685230278,71.1456829268293,2.491,31298900,False,Lower middle income,Europe & Central Asia
VUT,Vanuatu,2805.83414035745,71.9849024390244,3.312,264603,False,Lower middle income,East Asia & Pacific
VNM,Vietnam,2107.01292734572,75.8911951219512,1.958,91713300,False,Lower middle income,East Asia & Pacific
VIR,Virgin Islands (U.S.),36350.8216347732,79.8731707317073,1.74,103574,False,High income,Latin America & Caribbean
PSE,West Bank and Gaza,2865.80510851865,73.3016829268293,4.075,4422143,False,Lower middle income,Middle East & North Africa
YEM,"Yemen, Rep.",1401.90331929928,64.7256829268293,4.104,26916207,False,Lower middle income,Middle East & North Africa
ZMB,Zambia,1313.88964550765,61.3395853658537,5.041,16100587,False,Lower middle income,Sub-Saharan Africa
ZWE,Zimbabwe,1018.69308293209,60.2793414634146,3.836,15777451,False,Low income,Sub-Saharan Africa
